void declarationFantome(Sprite fantomes[10],Texture textureFantome[4],int niveau[DIMENSION][DIMENSION])
{
    LARGEUR_FENETRE/DIMENSION;
    int i,f;
    int nbSpawn = 0;
    Vector2f positionSpawn[4];
    for(i=0;i<DIMENSION;i++)
    {
        for(f=0;f<DIMENSION;f++)
        {
            if(niveau[f][i]==2)
            {
                positionSpawn[nbSpawn].x = i*LARGEUR_FENETRE/DIMENSION;
                positionSpawn[nbSpawn].y = f*LARGEUR_FENETRE/DIMENSION;
                nbSpawn++;
                printf("a");
            }
        }
    }
    for(i=0;i<10;i++)
    {
        Sprite fantome;
        fantomes[i] = fantome;
        fantomes[i].setPosition(positionSpawn[rand()%4]);
        fantomes[i].setTexture(textureFantome[rand()%4]);
    }
}